307	I	7-9	Lunes	234
307	I	11-1	Viernes	236
307	J	7-9	Lunes	226
307	J	9-11	Viernes	231
307	Q	9-11	Viernes	229
307	Q	11-1	Viernes	224
328-1	A	11-1	Lunes	234
328-1	A	7-9	Martes	234
328-1	A	2-4	Jueves	224
SIS502	A	9-11	Martes	234
SIS502	A	9-11	Viernes	226
SIS502	A	7-9	Lunes	230
SIS502	B	11-1	Lunes	230
SIS502	B	11-1	Miercoles	231
SIS502	B	4-6	Martes	234
SIS402	A	7-9	Miercoles	229
SIS402	A	7-9	Martes	222
SIS504	A	4-6	Lunes	222
SIS504	A	9-11	Jueves	226
SIS504	B	6-8	Lunes	224
SIS504	B	4-6	Viernes	105
11465	A	2-4	Jueves	105
11465	A	11-1	Viernes	222
11465	B	4-6	Viernes	236
11465	B	2-4	Lunes	221
11465	C	6-8	Jueves	226
11465	C	11-1	Martes	222
311-1	A	6-8	Jueves	105
311-1	A	6-8	Miercoles	222
311-1	I	7-9	Jueves	222
311-1	I	6-8	Lunes	225
311-1	J	2-4	Viernes	227
311-1	J	2-4	Miercoles	105
316-1	A	4-6	Lunes	226
316-1	A	9-11	Martes	105
316-1	D	2-4	Viernes	234
316-1	D	7-9	Viernes	225
SIS803	A	7-9	Lunes	234
SIS803	A	9-11	Lunes	225
322-1	E	4-6	Miercoles	236
322-1	E	6-8	Martes	225
317-1	FC	4-6	Jueves	221
317-1	FC	6-8	Lunes	234
317-1	FD	2-4	Jueves	226
317-1	FD	7-9	Lunes	231
MAT131	A	11-1	Miercoles	105
MAT131	A	2-4	Viernes	225
SIS401	A	2-4	Jueves	229
SIS401	A	7-9	Miercoles	222
SIS601	A	7-9	Viernes	234
SIS601	A	6-8	Lunes	234
SIS301	A	9-11	Viernes	222
SIS301	A	7-9	Martes	105
SIS301	B	2-4	Miercoles	225
SIS301	B	11-1	Miercoles	234
EFISH 409	A	11-1	Lunes	229
EFISH 409	A	11-1	Jueves	234
EFISH 409	B	9-11	Jueves	105
EFISH 409	B	4-6	Martes	221
PIS110	A	9-11	Lunes	221
PIS110	A	2-4	Jueves	226
SIS901	A	9-11	Miercoles	225
SIS901	A	11-1	Viernes	231
344	A	9-11	Jueves	236
344	A	4-6	Martes	230
SIS503	A	6-8	Jueves	231
SIS503	A	6-8	Viernes	105
SIS503	B	9-11	Miercoles	236
SIS503	B	6-8	Martes	221
SIS602	A	9-11	Martes	230
SIS602	A	2-4	Jueves	230
SIS703	A	9-11	Miercoles	226
SIS703	A	7-9	Lunes	105
31401	1A	7-9	Jueves	231
31401	1A	4-6	Miercoles	222
31401	1B	2-4	Viernes	222
31401	1B	4-6	Lunes	236
M31402	2A	7-9	Miercoles	236
M31402	2A	4-6	Lunes	221
333-1	A	6-8	Lunes	221
333-1	A	11-1	Lunes	224
333-1	A	2-4	Martes	105
333-1	B	2-4	Miercoles	227
333-1	B	6-8	Lunes	105
333-1	B	4-6	Viernes	230
11477	A	7-9	Lunes	224
11477	A	2-4	Jueves	222
11477	B	6-8	Miercoles	230
11477	B	9-11	Miercoles	224
11477	C	7-9	Viernes	222
11477	C	2-4	Viernes	221
11477	D	6-8	Lunes	105
11477	D	2-4	Miercoles	221
11479	A	9-11	Lunes	236
11479	A	2-4	Martes	225
11479	B	11-1	Martes	230
11479	B	11-1	Viernes	227
338	A	6-8	Viernes	234
338	A	2-4	Miercoles	224
SIS402L	A	2-4	Lunes	Sala 2
SIS402L	B	2-4	Viernes	Sala 4
SIS504L	A	2-4	Miercoles	Sala 332
SIS504L	B	7-9	Lunes	Sala 332
SIS504L	C	6-8	Viernes	Sala 332
329-1	C	7-9	Miercoles	Sala 4
329-1	D	7-9	Lunes	Sala 332
SIS601L	A	9-11	Viernes	Sala 2
SIS601L	B	2-4	Miercoles	Sala 333
10153	A	6-8	Martes	Sala 332
10153	B	2-4	Lunes	Sala 332
SIS401L	A	11-1	Martes	Sala 333
SIS401L	B	9-11	Miercoles	Sala 333
SIS503L	A	2-4	Jueves	Sala 332
SIS503L	B	9-11	Lunes	Sala 2
SIS602L	A	9-11	Jueves	Sala 4
SIS602L	B	11-1	Viernes	Sala 333
SIS703L	A	4-6	Miercoles	245
SIS703L	B	7-9	Martes	245
11478	A	6-8	Lunes	Sala 2
11478	B	11-1	Jueves	Sala 2
11478	C	2-4	Martes	Sala 4
11478	D	11-1	Miercoles	Sala 2
318-1	C	9-11	Jueves	Sala 333
318-1	D	9-11	Miercoles	Sala 332
318-1	E	9-11	Lunes	Sala 332
318-1	L	7-9	Martes	Sala 332
SIS201-L	A	2-4	Jueves	Sala 2
SIS201-L	B	4-6	Jueves	Sala 333
SIS201-L	C	9-11	Lunes	Sala 2
SIS702L	A	2-4	Miercoles	245
SIS702L	B	11-1	Lunes	245
SIS603L	A	2-4	Martes	Sala 332
SIS603L	B	11-1	Jueves	Sala 333
21505	M	11-1	Martes	225
21505	M	9-11	Jueves	236
21505	N	11-1	Jueves	222
21505	N	6-8	Miercoles	226
351	A	9-11	Martes	227
351	A	7-9	Jueves	221
312-1	J	11-1	Miercoles	234
312-1	J	9-11	Lunes	224
312-1	K	2-4	Viernes	105
312-1	K	4-6	Martes	224
SIS801	A	7-9	Viernes	221
SIS801	A	11-1	Viernes	234
SIS801	A	7-9	Viernes	224
SIS201	A	7-9	Martes	221
SIS201	A	6-8	Lunes	230
SIS201	B	4-6	Viernes	224
SIS201	B	7-9	Miercoles	236
346-1	B	9-11	Viernes	222
346-1	B	2-4	Lunes	105
346-1	B	11-1	Jueves	105
SIS902	A	7-9	Martes	226
SIS902	A	4-6	Lunes	105
SIS902	A	9-11	Viernes	227
TLM815	A	11-1	Miercoles	229
TLM815	A	9-11	Martes	231
TLM815	A	9-11	Jueves	236
TLM815	B	6-8	Lunes	231
TLM815	B	7-9	Martes	230
TLM815	B	4-6	Miercoles	236
SIS702	A	4-6	Lunes	225
SIS702	A	2-4	Jueves	225
SIS702	A	4-6	Martes	222
SIS702	B	6-8	Martes	229
SIS702	B	7-9	Jueves	227
SIS702	B	9-11	Jueves	221
SIS603	A	9-11	Lunes	234
SIS603	A	6-8	Martes	105
SIS501	A	2-4	Miercoles	231
SIS501	A	4-6	Jueves	105
SIS706	A	4-6	Jueves	225
SIS706	A	9-11	Martes	225
SIS706	A	4-6	Martes	229
SIS706	B	11-1	Martes	224
SIS706	B	11-1	Viernes	226
SIS706	B	7-9	Miercoles	105
323-1	D	6-8	Martes	222
323-1	D	9-11	Lunes	222
fitness: 61

